[gd_scene load_steps=5 format=2]

[ext_resource path="res://assets/sprites/laser_01.tres" type="Texture" id=1]
[ext_resource path="res://scripts/laser.gd" type="Script" id=2]
[ext_resource path="res://assets/sounds/laser1.wav" type="AudioStream" id=3]

[sub_resource type="CapsuleShape2D" id=1]
height = 0.0

[node name="laser" type="Node2D"]
script = ExtResource( 2 )

[node name="Sprite" type="Sprite" parent="."]
texture = ExtResource( 1 )

[node name="Area2D" type="Area2D" parent="."]

[node name="CollisionShape2D" type="CollisionShape2D" parent="Area2D"]
rotation = 1.5708
shape = SubResource( 1 )

[node name="snd" type="AudioStreamPlayer2D" parent="."]
stream = ExtResource( 3 )
autoplay = true
